desc example 1
1 = replace fantasy good
2 = writefile example1.out
4 = readfile example1.in
5 = sort 
6 = grep wizard
7 = synch
8 = readfile example2.in
9 = writefile example1.in
10 = replace fantasy bad
end
4->5->1->7->6->7->2
8->10->1->6->7->9